<svg width="23" height="24" viewBox="0 0 23 24" fill="none" xmlns="http://www.w3.org/2000/svg">
<path d="M11.0942 23.6964C10.5897 23.6964 10.1152 23.5517 9.68505 23.2683C9.50815 23.1517 9.50815 22.3395 9.51016 21.6882C9.51217 20.6791 9.51418 19.4227 9.10812 18.2728C8.70004 17.117 7.89595 15.9892 6.9612 15.2575C4.97107 13.7016 2.33164 12.8412 2.21907 12.805C2.205 12.801 2.18892 12.797 2.17284 12.795C1.27426 12.6543 0.622951 11.8904 0.626972 10.9818L0.643054 4.39826C0.645064 3.41526 1.33256 2.56895 2.31355 2.33577C2.4402 2.30561 2.59297 2.28752 2.75379 2.26742C3.1297 2.22118 3.55587 2.16691 3.94787 1.94578C5.3309 1.16179 7.15217 0.898454 8.91514 0.731605C11.4762 0.490378 14.0794 0.422031 15.8142 0.407959C16.4173 0.407959 16.9661 0.635115 17.3782 1.04922C17.7903 1.46132 18.0174 2.01212 18.0174 2.59509L18.0074 11.0803C18.0054 12.7206 16.6686 14.0534 15.0302 14.0534H15.0041C15.0041 14.0534 13.5487 14.0031 13.5467 14.0031C13.4221 14.0031 13.3095 14.0815 13.2653 14.1981C12.9657 14.9922 13.2974 16.1601 13.6794 17.513C14.003 18.6568 14.3367 19.8388 14.2945 20.8379C14.2302 22.2812 12.6461 23.6964 11.0942 23.6964Z" fill="url(#paint0_radial_371_10109)"/>
<path d="M15.8301 0.707072C16.3347 0.707072 16.8071 0.904074 17.1629 1.25988C17.5187 1.61569 17.7137 2.0881 17.7137 2.59266L17.7036 11.0778C17.7016 12.5513 16.5015 13.7514 15.028 13.7514H15.0159L13.5686 13.7012H13.5465C13.2972 13.7012 13.07 13.856 12.9816 14.0912C12.6479 14.9777 12.9896 16.1898 13.3877 17.593C13.7053 18.7127 14.0329 19.8726 13.9907 20.8234C13.9344 22.0979 12.473 23.3945 11.094 23.3945C10.6658 23.3945 10.2618 23.2759 9.89389 23.0427C9.80946 22.8417 9.81147 22.1783 9.81147 21.6878C9.81348 20.6566 9.81549 19.372 9.39133 18.1699C8.96517 16.9618 8.12489 15.7818 7.14591 15.0179C5.11357 13.4298 2.42389 12.5513 2.31132 12.5151C2.28116 12.5051 2.25101 12.4991 2.22085 12.493C1.47104 12.3744 0.926269 11.7372 0.930289 10.9773L0.946371 4.39383C0.948381 3.55154 1.53939 2.82384 2.38368 2.62483C2.49626 2.5987 2.63898 2.5806 2.79176 2.5605C3.17571 2.51226 3.65415 2.45195 4.0964 2.20268C5.43119 1.44684 7.21426 1.19154 8.94305 1.0267C11.492 0.785471 14.0872 0.719133 15.816 0.705062L15.8301 0.707072ZM15.8301 0.104004H15.81C13.9927 0.118075 11.4176 0.190444 8.88476 0.429661C6.83835 0.622642 5.12965 0.926187 3.79687 1.68002C3.29834 1.96346 2.68924 1.93331 2.24297 2.03985C1.13935 2.30118 0.345314 3.26006 0.341293 4.39383L0.325211 10.9793C0.321191 12.0307 1.08709 12.9293 2.12637 13.0921C2.12637 13.0921 4.804 13.9545 6.77402 15.4963C7.51378 16.0732 8.37215 17.0985 8.82244 18.375C9.57426 20.5018 8.86868 23.0909 9.51798 23.5211C10.0225 23.8548 10.5613 23.9996 11.094 23.9996C12.8509 23.9996 14.5255 22.4195 14.5938 20.8516C14.6903 18.6423 13.0439 15.639 13.5465 14.3042L15.0019 14.3545H15.026C16.8332 14.3545 18.3027 12.889 18.3047 11.0798L18.3147 2.59467C18.3188 1.21767 17.2031 0.104004 15.8301 0.104004Z" fill="#EDA600"/>
<path d="M11.9117 12.3003C12.2896 11.2952 12.2936 9.72718 11.9117 8.75825C11.3589 7.35914 10.006 6.13491 8.44405 5.91981C8.06211 5.86755 8.28927 5.51576 8.6692 5.56802C10.3598 5.80121 12.6474 6.4867 13.2425 8.00442C14.8748 12.1756 12.9651 14.3608 12.1127 13.7094C11.7026 13.3918 11.6986 12.8692 11.9117 12.3003Z" fill="#EDA600"/>
<path d="M17.8439 14.9542C15.2065 14.9542 13.333 14.5099 12.5731 13.7018C12.2816 13.3942 12.153 13.0364 12.1791 12.6102C12.2655 11.1207 14.2878 10.8091 15.9664 10.8091C17.8439 10.8091 19.7054 11.195 19.7235 11.1991C19.7375 11.2031 19.7536 11.2051 19.7677 11.2051C20.6502 11.2574 21.3196 12.1258 21.2593 13.1409C21.201 14.1239 20.4874 14.8939 19.633 14.8939C19.6049 14.8939 19.5787 14.8939 19.5506 14.8919H19.5325C19.5245 14.8919 19.5144 14.8919 19.5064 14.8939C19.4983 14.8919 18.8008 14.9542 17.8439 14.9542Z" fill="url(#paint1_radial_371_10109)"/>
<path d="M15.9643 11.1104C17.8057 11.1104 19.6411 11.4903 19.6591 11.4943C19.6873 11.5004 19.7174 11.5044 19.7476 11.5064C20.0813 11.5265 20.3889 11.6954 20.616 11.9848C20.8593 12.2944 20.9799 12.7005 20.9557 13.1246C20.9075 13.9468 20.3265 14.5921 19.631 14.5921C19.6089 14.5921 19.5868 14.5921 19.5667 14.5901C19.5546 14.5901 19.5426 14.5881 19.5325 14.5881C19.5144 14.5881 19.4963 14.5881 19.4782 14.5901C19.4722 14.5901 18.7847 14.6504 17.8439 14.6504C15.3271 14.6504 13.4857 14.2283 12.7922 13.4925C12.559 13.2453 12.4585 12.9678 12.4786 12.6241C12.4987 12.2944 12.6193 11.816 13.4455 11.4783C14.0486 11.235 14.8949 11.1104 15.9643 11.1104ZM15.9643 10.5073C13.9923 10.5073 11.9741 10.9214 11.8755 12.5919C11.7409 14.9077 15.5482 15.2555 17.8439 15.2555C18.8269 15.2555 19.5325 15.1912 19.5325 15.1912C19.5667 15.1932 19.5988 15.1932 19.633 15.1932C20.6401 15.1932 21.4925 14.3046 21.5588 13.1568C21.6272 11.9728 20.8331 10.9636 19.7838 10.9013C19.7838 10.9033 17.8962 10.5073 15.9643 10.5073Z" fill="#EDA600"/>
<path d="M17.2254 11.2311C15.0322 11.2311 12.4189 10.8632 12.4189 9.10625C12.4189 7.35133 15.0322 6.98145 17.2254 6.98145C19.0869 6.98145 20.7795 7.25283 20.7956 7.25484C20.8116 7.25685 20.8277 7.25886 20.8438 7.25886C21.6901 7.25886 22.3475 8.28809 22.3475 9.1746C22.3475 10.0149 21.7303 10.9516 20.8438 10.9516C20.8277 10.9516 20.8116 10.9537 20.7956 10.9557C20.7775 10.9597 19.0849 11.2311 17.2254 11.2311Z" fill="url(#paint2_radial_371_10109)"/>
<path d="M17.2252 7.28495C19.0585 7.28495 20.731 7.55231 20.7471 7.55432C20.7793 7.56035 20.8114 7.56236 20.8436 7.56236C21.4909 7.56236 22.0457 8.44887 22.0457 9.17658C22.0457 9.87412 21.5311 10.6521 20.8436 10.6521C20.8114 10.6521 20.7793 10.6541 20.7471 10.6601C20.731 10.6621 19.0625 10.9295 17.2252 10.9295C15.8522 10.9295 14.7606 10.7848 13.9787 10.4973C12.8509 10.0832 12.7203 9.50424 12.7203 9.10622C12.7203 8.70618 12.8509 8.12925 13.9787 7.71514C14.7586 7.42969 15.8522 7.28495 17.2252 7.28495ZM17.2252 6.68188C14.827 6.68188 12.1172 7.12212 12.1172 9.10823C12.1172 11.0943 14.825 11.5346 17.2252 11.5346C19.1329 11.5346 20.8436 11.2572 20.8436 11.2572C21.8809 11.2572 22.6488 10.2058 22.6488 9.17859C22.6488 8.15136 21.8809 6.96131 20.8436 6.96131C20.8436 6.9593 19.1309 6.68188 17.2252 6.68188Z" fill="#EDA600"/>
<path d="M17.0842 4.07678C13.9362 4.07678 12.131 3.4717 12.127 2.41633C12.127 2.13892 12.2355 1.89367 12.4627 1.66651C13.7593 0.365898 18.0491 0.299561 18.8954 0.299561C19.02 0.299561 19.0924 0.301571 19.0924 0.301571C20.0794 0.301571 20.8734 1.12777 20.8775 2.14093C20.8795 2.63544 20.6945 3.10182 20.3588 3.4516C20.0251 3.79936 19.5829 3.99034 19.1125 3.99235C19.1044 3.99235 19.0944 3.99235 19.0864 3.99436C19.0763 3.99637 18.2039 4.07678 17.0842 4.07678Z" fill="url(#paint3_radial_371_10109)"/>
<path d="M18.8961 0.603068C19.0167 0.603068 19.0851 0.605078 19.0871 0.605078H19.1052C19.9133 0.605078 20.5726 1.2966 20.5746 2.14491C20.5766 2.56103 20.4219 2.95302 20.1404 3.24652C19.865 3.53398 19.4992 3.69279 19.1112 3.6948C19.0931 3.6948 19.075 3.6948 19.0569 3.69681C19.0489 3.69681 18.1925 3.77722 17.0869 3.77722C14.2183 3.77722 12.4332 3.25657 12.4312 2.4183C12.4312 2.29568 12.4553 2.10672 12.6785 1.88358C13.2654 1.29057 15.2455 0.603068 18.8961 0.603068ZM18.8961 0C17.7181 0 11.8201 0.114583 11.8281 2.4183C11.8342 4.0888 14.9339 4.37827 17.0869 4.37827C18.2347 4.37827 19.1132 4.29585 19.1132 4.29585C20.257 4.29183 21.1817 3.32692 21.1777 2.14089C21.1737 0.956868 20.247 0 19.1052 0H19.0991H18.8961Z" fill="#EDA600"/>
<path d="M16.9723 7.42802C15.1672 7.42802 12.1357 7.18881 12.1357 5.5947C12.1357 3.69503 16.3371 3.48999 18.1443 3.48999C19.1957 3.48999 19.9676 3.55231 19.9756 3.55231H19.9997C20.9506 3.55231 21.815 4.55742 21.815 5.66304C21.815 6.83099 20.836 7.24509 19.9997 7.24509C19.9877 7.24509 19.9736 7.24509 19.9616 7.2471C19.9475 7.25313 18.5665 7.42802 16.9723 7.42802Z" fill="url(#paint4_radial_371_10109)"/>
<path d="M18.1441 3.79325C19.1794 3.79325 19.9432 3.85557 19.9513 3.85557C19.9674 3.85758 19.9834 3.85758 20.0015 3.85758C20.7795 3.85758 21.5152 4.73605 21.5152 5.66678C21.5152 6.61159 20.7333 6.9473 20.0015 6.9473C19.9754 6.9473 19.9493 6.94931 19.9231 6.95132C19.9091 6.95333 18.5461 7.12822 16.9721 7.12822C15.6032 7.12822 14.5056 7.00158 13.7135 6.75231C12.4391 6.35026 12.4391 5.78338 12.4391 5.59643C12.4391 4.98532 13.0462 4.51492 14.2422 4.1953C15.4805 3.8616 17.0485 3.79325 18.1441 3.79325ZM18.1441 3.19019C15.7338 3.19019 11.834 3.51182 11.834 5.59643C11.834 7.36543 14.6483 7.73129 16.9721 7.73129C18.6064 7.73129 19.9995 7.55037 19.9995 7.55037C21.1333 7.55037 22.1163 6.90709 22.1163 5.66678C22.1163 4.42647 21.1333 3.25451 19.9995 3.25451C19.9995 3.25451 19.2196 3.19019 18.1441 3.19019Z" fill="#EDA600"/>
<path d="M4.20674 1.76709L3.24384 5.56642L2.8418 2.14903L4.20674 1.76709Z" fill="#EDA600"/>
<defs>
<radialGradient id="paint0_radial_371_10109" cx="0" cy="0" r="1" gradientUnits="userSpaceOnUse" gradientTransform="translate(9.02753 18.5531) rotate(-90.125) scale(17.4969 13.7753)">
<stop offset="0.6" stop-color="#FFCA28"/>
<stop offset="1" stop-color="#FFB300"/>
</radialGradient>
<radialGradient id="paint1_radial_371_10109" cx="0" cy="0" r="1" gradientUnits="userSpaceOnUse" gradientTransform="translate(19.3215 13.057) rotate(-176.727) scale(5.68324 2.7809)">
<stop offset="0.5993" stop-color="#FFCA28"/>
<stop offset="1" stop-color="#FFB300"/>
</radialGradient>
<radialGradient id="paint2_radial_371_10109" cx="0" cy="0" r="1" gradientUnits="userSpaceOnUse" gradientTransform="translate(20.2194 9.16107) rotate(179.936) scale(6.39619 2.56497)">
<stop offset="0.5993" stop-color="#FFCA28"/>
<stop offset="1" stop-color="#FFB300"/>
</radialGradient>
<radialGradient id="paint3_radial_371_10109" cx="0" cy="0" r="1" gradientUnits="userSpaceOnUse" gradientTransform="translate(18.9821 2.23027) rotate(179.726) scale(5.37156 2.79658)">
<stop offset="0.5993" stop-color="#FFCA28"/>
<stop offset="1" stop-color="#FFB300"/>
</radialGradient>
<radialGradient id="paint4_radial_371_10109" cx="0" cy="0" r="1" gradientUnits="userSpaceOnUse" gradientTransform="translate(19.7331 5.51079) rotate(179.934) scale(6.11991 2.54554)">
<stop offset="0.5993" stop-color="#FFCA28"/>
<stop offset="1" stop-color="#FFB300"/>
</radialGradient>
</defs>
</svg>
