<svg width="29" height="26" viewBox="0 0 29 26" fill="none" xmlns="http://www.w3.org/2000/svg">
<path d="M3.35966 11.766C6.10159 11.766 8.63005 13.8627 10.0793 13.8627C11.5119 13.8627 13.6039 13.1393 12.3492 10.4258C11.9555 10.1934 11.6234 9.83997 11.4502 9.35135C10.5537 8.47137 9.15661 7.45382 9.15661 7.45382C9.15661 7.45382 2.85682 11.6023 1.03756 9.20904C0.0413588 7.89737 1.13481 6.80392 2.37769 6.27261C4.53376 5.35468 5.75529 4.67157 7.45595 3.24605C8.6087 2.1194 10.3236 2.50127 11.2083 3.05393C11.8582 3.45953 11.9175 3.40497 11.9175 3.40497L11.7918 5.01076C11.9033 4.40355 12.0385 3.7489 12.2116 2.93771C12.437 1.87746 14.0546 0.153084 16.3909 1.48373C20.2643 3.68723 25.3283 6.20383 26.7182 9.19718C28.1272 12.2332 28.4497 16.5335 26.9365 19.534C25.8549 21.6805 23.6442 23.6516 21.6898 24.3489C18.2671 25.5705 12.1144 24.6715 9.62625 21.3983C7.8236 19.0264 8.18176 17.1336 3.04183 15.3974C3.04183 15.3974 1.06602 14.821 0.964032 13.8912C0.776651 12.155 2.1998 11.766 3.35966 11.766Z" fill="url(#paint0_linear_371_10123)"/>
<path d="M14.4242 10.5867C14.3198 11.5663 14.7942 12.5838 15.6125 13.1341C16.4308 13.682 17.5527 13.7366 18.4185 13.2669C18.3639 14.4268 19.1182 15.5819 20.2045 15.997C18.3473 16.8106 16.7012 18.0985 15.4631 19.7019C15.2449 17.1569 13.4636 14.8134 11.0703 13.9216C11.7131 13.8623 12.2752 13.3974 12.5575 12.8186C12.7947 12.3324 12.5646 11.3528 12.8208 10.9994C13.0105 10.7408 14.3886 10.9187 14.4242 10.5867Z" fill="url(#paint1_linear_371_10123)"/>
<path d="M22.5451 5.16305C21.8667 4.90689 17.9744 3.99133 17.2747 3.86325C15.4057 3.52406 14.4521 4.45385 14.4521 6.03591C14.4545 8.31058 14.4332 10.8295 14.6063 11.6763C14.9242 13.2299 16.8691 14.4799 18.1191 12.7294" stroke="#EDA600" stroke-miterlimit="10" stroke-linecap="round" stroke-linejoin="round"/>
<path d="M23.3496 7.45654C23.3496 7.45654 21.7723 7.45654 20.0194 7.56565C18.6983 7.6463 17.7021 8.55237 17.7851 10.0111C17.8705 11.5291 18.1385 13.2701 18.5014 14.6482C18.8145 15.8389 21.49 16.1804 23.0745 14.9755" stroke="#EDA600" stroke-miterlimit="10" stroke-linecap="round" stroke-linejoin="round"/>
<path d="M12.3511 10.4259C13.6059 13.1394 11.5138 13.8628 10.0812 13.8628C8.63197 13.8628 6.10352 11.766 3.36159 11.766C2.20172 11.766 0.778578 12.155 0.965959 13.8936C1.06558 14.8234 3.04375 15.3998 3.04375 15.3998C8.18368 17.136 7.6927 19.1332 9.62818 21.4007C12.9678 25.3144 18.2667 25.5753 21.6917 24.3514C23.6462 23.654 25.8568 21.683 26.9384 19.5364C28.4517 16.5359 28.1291 12.2357 26.7202 9.19962C25.3302 6.2039 20.2662 3.68967 16.3929 1.48617C14.0542 0.155525 12.4389 1.8799 12.2136 2.94015C11.7415 5.1484 11.5565 6.21101 11.3407 8.25086C11.1082 10.4188 13.2501 11.09 14.3673 10.6228" stroke="#EDA600" stroke-miterlimit="10" stroke-linecap="round" stroke-linejoin="round"/>
<path d="M23.0232 12.9876C22.5844 12.1717 20.9193 12.5465 20.9193 12.5465L21.3984 11.3391C21.5265 11.0189 21.9345 10.9312 22.1812 11.1707C22.665 11.6428 23.4264 12.3069 24.1546 12.6295C24.4084 12.7409 24.5293 13.0279 24.4108 13.2794C24.1 13.9482 23.6138 15.1769 23.7063 16.1636C23.73 16.4198 23.5071 16.6285 23.2533 16.5929C18.5 15.943 16.3652 20.2528 16.3652 20.2528C16.3652 20.2528 16.6712 17.5156 19.3183 15.8648C20.2599 15.2765 20.6513 15.5279 20.9074 15.5374C21.5763 15.5588 22.3567 15.4758 22.7457 15.0109C23.0066 14.693 23.462 13.8036 23.0232 12.9876Z" fill="#EDA600"/>
<path d="M7.70703 13.4519C7.70703 13.4519 8.93331 14.2014 9.79906 14.3793C10.6648 14.5572 11.7203 14.5335 13.2715 16.1393C13.8432 16.7299 14.346 17.8992 14.5951 18.542C14.6164 18.5989 14.7042 18.58 14.6994 18.5183C14.6188 17.5316 14.1468 14.7043 11.374 13.8599" fill="#EDA600"/>
<path d="M11.9175 3.40501C11.9175 3.40501 11.8606 3.45957 11.2083 3.05397C10.3236 2.50132 8.6087 2.11944 7.45595 3.2461C5.75529 4.67161 4.53376 5.35472 2.37769 6.27265C1.13481 6.80159 0.0413588 7.89504 1.03756 9.20908C2.85682 11.6047 9.15661 7.45624 9.15661 7.45624C9.15661 7.45624 10.556 8.47379 11.4502 9.35377" stroke="#EDA600" stroke-miterlimit="10" stroke-linecap="round" stroke-linejoin="round"/>
<path d="M8.16797 7.62254C8.70402 7.25252 9.14994 6.69512 9.5081 6.0974C9.5674 5.99778 9.72157 6.0215 9.74529 6.13535C9.84965 6.6548 9.62195 7.31182 9.38476 7.62254" fill="#EDA600"/>
<defs>
<linearGradient id="paint0_linear_371_10123" x1="14.617" y1="11.4277" x2="9.43199" y2="26.8821" gradientUnits="userSpaceOnUse">
<stop offset="0.3446" stop-color="#FFCA28"/>
<stop offset="1" stop-color="#FFB300"/>
</linearGradient>
<linearGradient id="paint1_linear_371_10123" x1="16.1455" y1="13.8556" x2="14.6434" y2="17.1369" gradientUnits="userSpaceOnUse">
<stop offset="0.1941" stop-color="#FFB300"/>
<stop offset="1" stop-color="#FFB300" stop-opacity="0"/>
</linearGradient>
</defs>
</svg>
